…
### Correlation

correlate() calculates the correlation coefficient of all combinations of dataset numerical variables

correlate() produces two pairs of variables
```{r}
correlate(Carseats, Sales, CompPrice, Income, Price)

# A tibble: 28 x 3
   var1      var2        coef_corr
   <fct>     <fct>           <dbl>
 1 CompPrice Sales          0.0641
 2 Income    Sales          0.152 
 3 Price     Sales         -0.445 
 4 Sales     CompPrice      0.0641
 5 Income    CompPrice     -0.0807
 6 Price     CompPrice      0.585 
 7 Sales     Income         0.152 
 8 CompPrice Income        -0.0807
 9 Price     Income        -0.0567
10 Sales     Advertising    0.270 
# ... with 18 more rows
```
…
